
[
    {
      "id": 1,
      "Sno": "1",
      "Dishes": "Chicken Fried Rice",
      "Price": "120"
      
    },
    {
      "id": 2,
      "Sno": "2",
      "Dishes": "Parotta",
      "Price": "15"
      
    },
    {
      "id": 3,
      "Sno": "3",
      "Dishes": "Dosai",
      "Price": "30"
      
    },
    {
      "id": 4,
      "Sno": "4",
      "Dishes": "Kothu Parotta",
      "Price": "80"
      
    },
    {
      "id": 5,
      "Sno": "5",
      "Dishes": "Biryani",
      "Price": "150"
      
    },
    {
        "id": 6,
        "Sno": "6",
        "Dishes": "Tandori",
        "Price": "300"
        
      },
      {
        "id": 7,
        "Sno": "7",
        "Dishes": "Chicken 65",
        "Price": "80"
        
      },
      {
        "id": 8,
        "Sno": "8",
        "Dishes": "Chicken Noodles",
        "Price": "130"
        
      }


  ]